<svg width="126" height="38" viewBox="0 0 126 38" fill="none" xmlns="http://www.w3.org/2000/svg">
<path d="M124.204 33.6261C124.204 34.0917 124.112 34.5528 123.933 34.9829C123.755 35.4131 123.493 35.8039 123.163 36.133C122.833 36.462 122.441 36.723 122.01 36.9008C121.579 37.0787 121.117 37.17 120.651 37.1695H4.38221C3.43984 37.1705 2.53567 36.7977 1.86854 36.1332C1.2014 35.4687 0.825935 34.5669 0.824707 33.6261V5.36837C0.825935 4.4271 1.20125 3.52479 1.86826 2.85956C2.53526 2.19433 3.43942 1.82056 4.38221 1.82031H120.65C121.117 1.82031 121.579 1.91209 122.01 2.09041C122.441 2.26873 122.833 2.53009 123.163 2.85957C123.493 3.18905 123.754 3.58019 123.933 4.01066C124.111 4.44112 124.203 4.90247 124.203 5.36837L124.204 33.6261Z" fill="white"/>
<path d="M120.651 37.995H4.38224C3.22136 37.9948 2.10798 37.5347 1.28642 36.7159C0.464853 35.897 0.00220884 34.7862 0 33.6272L0 5.37044C0.00171736 4.21085 0.464056 3.0993 1.28559 2.2796C2.10713 1.45991 3.22078 0.999026 4.38224 0.998047L120.65 0.998047C121.811 0.999514 122.925 1.46056 123.746 2.28014C124.568 3.09973 125.03 4.211 125.032 5.37044V33.6272C125.034 36.0364 123.065 37.995 120.651 37.995Z" fill="#A6A6A6"/>
<path d="M124.204 33.6261C124.204 34.0917 124.112 34.5528 123.933 34.9829C123.755 35.4131 123.493 35.8039 123.163 36.133C122.833 36.462 122.441 36.723 122.01 36.9008C121.579 37.0787 121.117 37.17 120.651 37.1695H4.38221C3.43984 37.1705 2.53567 36.7977 1.86854 36.1332C1.2014 35.4687 0.825935 34.5669 0.824707 33.6261V5.36837C0.825935 4.4271 1.20125 3.52479 1.86826 2.85956C2.53526 2.19433 3.43942 1.82056 4.38221 1.82031H120.65C121.117 1.82031 121.579 1.91209 122.01 2.09041C122.441 2.26873 122.833 2.53009 123.163 2.85957C123.493 3.18905 123.754 3.58019 123.933 4.01066C124.111 4.44112 124.203 4.90247 124.203 5.36837L124.204 33.6261Z" fill="#171717"/>
<path d="M27.9189 19.3019C27.892 16.32 30.3644 14.8694 30.4775 14.8018C29.0773 12.7636 26.907 12.4852 26.1443 12.463C24.3216 12.2715 22.5535 13.5519 21.6249 13.5519C20.6779 13.5519 19.248 12.4815 17.707 12.5129C15.7239 12.5435 13.8687 13.6898 12.8512 15.4698C10.7513 19.0993 12.3174 24.4329 14.3292 27.3666C15.3356 28.8044 16.5116 30.4077 18.0508 30.3513C19.5566 30.2902 20.1191 29.3937 21.9363 29.3937C23.7368 29.3937 24.265 30.3513 25.8348 30.3152C27.4509 30.2902 28.4684 28.8719 29.4396 27.4221C30.6026 25.7763 31.0696 24.1535 31.0881 24.0702C31.0511 24.0573 27.9504 22.8749 27.9189 19.3019ZM24.9536 10.533C25.7635 9.52183 26.3176 8.14609 26.1638 6.75C24.9916 6.80181 23.5256 7.55953 22.6814 8.54854C21.9345 9.42006 21.2673 10.8485 21.4396 12.1919C22.7564 12.29 24.1084 11.5285 24.9536 10.533Z" fill="white"/>
<path d="M120.651 0.998047H58.374L82.7669 37.995H120.651C121.812 37.994 122.926 37.5334 123.747 36.7141C124.569 35.8948 125.031 34.7837 125.033 33.6245V5.37044C125.031 4.21093 124.569 3.09951 123.748 2.27987C122.926 1.46024 121.813 0.99927 120.651 0.998047V0.998047Z" fill="url(#paint0_linear)"/>
<path d="M49.73 30.1449H47.6255L46.4728 26.5284H42.4658L41.3677 30.1449H39.3188L43.2896 17.8326H45.7416L49.73 30.1449ZM46.1253 25.0111L45.0828 21.7961C44.9725 21.4677 44.7649 20.6942 44.461 19.4767H44.4239C44.3016 20.0003 44.106 20.7738 43.8382 21.7961L42.8133 25.0111H46.1253ZM59.9216 25.5967C59.9216 27.1066 59.5111 28.3001 58.6891 29.1762C57.9533 29.9562 57.0387 30.3457 55.948 30.3457C54.7702 30.3457 53.9232 29.9266 53.4089 29.0865V33.7448H51.4332V24.1849C51.4332 23.2366 51.4082 22.2642 51.36 21.2669H53.0976L53.2078 22.6741H53.2449C53.9038 21.6138 54.9036 21.0837 56.2455 21.0837C57.2945 21.0837 58.1702 21.4973 58.8707 22.3253C59.5704 23.1552 59.9216 24.2451 59.9216 25.5967ZM57.9088 25.6689C57.9088 24.8048 57.7142 24.0924 57.3232 23.5308C56.896 22.947 56.3224 22.6547 55.6033 22.6547C55.1158 22.6547 54.6729 22.8175 54.2772 23.1385C53.8806 23.4624 53.6211 23.8852 53.4997 24.4088C53.4455 24.6046 53.4147 24.8062 53.408 25.0092V26.4905C53.408 27.1353 53.6063 27.6802 54.0029 28.1262C54.3995 28.5703 54.9148 28.7932 55.5486 28.7932C56.2927 28.7932 56.8719 28.5055 57.2861 27.9347C57.7013 27.362 57.9088 26.607 57.9088 25.6689ZM70.1493 25.5967C70.1493 27.1066 69.7388 28.3001 68.9168 29.1762C68.1801 29.9562 67.2664 30.3457 66.1748 30.3457C64.997 30.3457 64.15 29.9266 63.6357 29.0865V33.7448H61.66V24.1849C61.66 23.2366 61.635 22.2642 61.5868 21.2669H63.3243L63.4346 22.6741H63.4717C64.1296 21.6138 65.1295 21.0837 66.4722 21.0837C67.5203 21.0837 68.396 21.4973 69.0984 22.3253C69.7971 23.1552 70.1493 24.2451 70.1493 25.5967ZM68.1356 25.6689C68.1356 24.8048 67.9401 24.0924 67.549 23.5308C67.1218 22.947 66.5501 22.6547 65.831 22.6547C65.3435 22.6547 64.9006 22.8175 64.5031 23.1385C64.1064 23.4624 63.8479 23.8852 63.7265 24.4088C63.6663 24.6531 63.6338 24.852 63.6338 25.0092V26.4905C63.6338 27.1353 63.8331 27.6802 64.2278 28.1262C64.6244 28.5693 65.1397 28.7932 65.7754 28.7932C66.5204 28.7932 67.0996 28.5055 67.5129 27.9347C67.928 27.362 68.1356 26.607 68.1356 25.6689ZM81.5844 26.6912C81.5844 27.7394 81.2175 28.5915 80.4882 29.2493C79.6857 29.9673 78.5653 30.3272 77.129 30.3272C75.802 30.3272 74.7382 30.0718 73.9357 29.5602L74.3925 27.9162C75.259 28.4287 76.2107 28.6841 77.2467 28.6841C77.9917 28.6841 78.5709 28.5157 78.9842 28.1817C79.3984 27.8468 79.6078 27.399 79.6078 26.8402C79.6078 26.3397 79.4345 25.9205 79.0945 25.5792C78.7525 25.2387 78.1872 24.9214 77.3931 24.6299C75.2339 23.8259 74.1534 22.65 74.1534 21.1032C74.1534 20.0929 74.5352 19.2657 75.2969 18.6191C76.0587 17.9733 77.0687 17.6504 78.3253 17.6504C79.4475 17.6504 80.3825 17.8456 81.1248 18.2351L80.629 19.8431C79.9303 19.4656 79.1417 19.2769 78.2595 19.2769C77.5627 19.2769 77.0159 19.448 76.6249 19.7885C76.2959 20.0929 76.1291 20.4639 76.1291 20.9042C76.1291 21.39 76.3191 21.7933 76.6971 22.1097C77.0252 22.4012 77.6238 22.7185 78.4893 23.059C79.5513 23.4864 80.3316 23.9842 80.831 24.5559C81.3342 25.1277 81.5844 25.841 81.5844 26.6912ZM88.1332 22.7472H85.9555V27.0576C85.9555 28.1539 86.3392 28.7007 87.1083 28.7007C87.4614 28.7007 87.7542 28.6711 87.9859 28.6091L88.0406 30.107C87.6514 30.2522 87.1389 30.3253 86.5041 30.3253C85.7239 30.3253 85.1141 30.0875 84.674 29.612C84.2356 29.1365 84.0151 28.3399 84.0151 27.2186V22.7435H82.7177V21.2632H84.0151V19.6377L85.9555 19.053V21.2632H88.1332V22.7472ZM97.9393 25.6328C97.9393 26.9975 97.5482 28.1178 96.768 28.994C95.9516 29.896 94.8655 30.3457 93.5116 30.3457C92.205 30.3457 91.1662 29.9136 90.3915 29.0504C89.6168 28.1854 89.2295 27.0955 89.2295 25.7808C89.2295 24.4051 89.6298 23.2782 90.4277 22.4021C91.2274 21.525 92.3042 21.0865 93.6581 21.0865C94.9628 21.0865 96.0109 21.5195 96.8041 22.3836C97.5621 23.2218 97.9393 24.3043 97.9393 25.6328ZM95.8913 25.6782C95.8913 24.8649 95.7153 24.1673 95.3622 23.5836C94.948 22.8786 94.3549 22.5261 93.5867 22.5261C92.7953 22.5261 92.1884 22.8786 91.7751 23.5836C91.4211 24.1673 91.245 24.8769 91.245 25.7152C91.245 26.5293 91.4211 27.2287 91.7751 27.8107C92.2023 28.5157 92.7981 28.8682 93.57 28.8682C94.3253 28.8682 94.9174 28.5083 95.3455 27.7931C95.7088 27.1954 95.8913 26.4932 95.8913 25.6782ZM104.364 23.0016C104.158 22.9646 103.95 22.9463 103.741 22.947C103.046 22.947 102.509 23.2079 102.131 23.7334C101.803 24.196 101.638 24.7807 101.638 25.4866V30.1449H99.662V24.0628C99.6637 23.1308 99.6446 22.1989 99.6045 21.2678H101.325L101.398 22.9665H101.452C101.662 22.3827 101.99 21.9118 102.44 21.5593C102.852 21.2513 103.353 21.0845 103.868 21.0837C104.051 21.0837 104.216 21.0967 104.362 21.1198L104.364 23.0016ZM113.2 25.2859C113.205 25.5857 113.181 25.8854 113.127 26.1805H107.2C107.223 27.0576 107.51 27.7293 108.06 28.1919C108.56 28.6045 109.206 28.8117 109.999 28.8117C110.877 28.8117 111.677 28.6729 112.397 28.3926L112.707 29.761C111.865 30.1273 110.872 30.3096 109.726 30.3096C108.347 30.3096 107.264 29.9044 106.477 29.0958C105.691 28.2862 105.297 27.1982 105.297 25.8354C105.297 24.4976 105.663 23.3828 106.396 22.4937C107.163 21.5445 108.2 21.0698 109.505 21.0698C110.787 21.0698 111.757 21.5445 112.416 22.4937C112.938 23.2459 113.2 24.1784 113.2 25.2859ZM111.316 24.7743C111.33 24.1886 111.2 23.6844 110.932 23.2579C110.59 22.7083 110.064 22.4345 109.359 22.4345C108.713 22.4345 108.186 22.7019 107.786 23.2385C107.457 23.665 107.262 24.1775 107.201 24.7724L111.316 24.7743Z" fill="white"/>
<path d="M41.8957 13.4794C41.3462 13.4794 40.8708 13.4526 40.4751 13.4073V7.45467C41.0285 7.36932 41.5878 7.32725 42.1477 7.32885C44.4135 7.32885 45.4569 8.44184 45.4569 10.2561C45.4569 12.3489 44.2244 13.4794 41.8957 13.4794ZM42.2274 8.09212C41.9216 8.09212 41.6612 8.11062 41.4453 8.15503V12.6801C41.5621 12.6986 41.7863 12.7069 42.1014 12.7069C43.5859 12.7069 44.4311 11.8631 44.4311 10.2829C44.4311 8.87389 43.6666 8.09212 42.2274 8.09212ZM48.7086 13.5248C47.4316 13.5248 46.6041 12.5728 46.6041 11.2803C46.6041 9.93322 47.4493 8.97289 48.7809 8.97289C50.0393 8.97289 50.8854 9.87956 50.8854 11.209C50.8854 12.5727 50.0134 13.5248 48.7086 13.5248ZM48.7457 9.68157C48.0442 9.68157 47.5947 10.3366 47.5947 11.2525C47.5947 12.1509 48.0534 12.8059 48.7364 12.8059C49.4194 12.8059 49.8781 12.1055 49.8781 11.234C49.8781 10.3458 49.4286 9.68157 48.7457 9.68157ZM58.1672 9.06263L56.8003 13.4258H55.9098L55.3436 11.531C55.2028 11.0675 55.0856 10.5972 54.9924 10.122H54.9739C54.9025 10.5975 54.7672 11.074 54.6236 11.531L54.0212 13.4258H53.1214L51.8352 9.06263H52.8332L53.3281 11.1369C53.4448 11.6309 53.5431 12.0972 53.6246 12.5376H53.6431C53.7145 12.1703 53.8313 11.7114 54.0027 11.1461L54.6236 9.06355H55.4149L56.0089 11.1017C56.1526 11.5958 56.2693 12.0806 56.3602 12.5385H56.3861C56.4491 12.0898 56.5483 11.6133 56.6826 11.1017L57.2136 9.06355L58.1672 9.06263ZM63.199 13.4258H62.2279V10.9204C62.2279 10.1488 61.9313 9.76206 61.3466 9.76206C60.7711 9.76206 60.3754 10.2561 60.3754 10.8306V13.4258H59.4043V10.3098C59.4043 9.92397 59.395 9.51041 59.3681 9.0617H60.2225L60.2679 9.73523H60.2948C60.5561 9.26894 61.0862 8.97289 61.6802 8.97289C62.5976 8.97289 63.1999 9.67325 63.1999 10.8131L63.199 13.4258ZM65.8771 13.4258H64.905V7.06055H65.8771V13.4258ZM69.4179 13.5248C68.1419 13.5248 67.3135 12.5728 67.3135 11.2803C67.3135 9.93322 68.1586 8.97289 69.4893 8.97289C70.7486 8.97289 71.5938 9.87956 71.5938 11.209C71.5947 12.5727 70.7218 13.5248 69.4179 13.5248ZM69.4541 9.68157C68.7526 9.68157 68.3031 10.3366 68.3031 11.2525C68.3031 12.1509 68.7628 12.8059 69.4439 12.8059C70.1278 12.8059 70.5855 12.1055 70.5855 11.234C70.5865 10.3458 70.138 9.68157 69.4541 9.68157ZM75.4228 13.4258L75.3524 12.9234H75.3264C75.0299 13.3277 74.5971 13.5248 74.0485 13.5248C73.2655 13.5248 72.7095 12.9771 72.7095 12.2406C72.7095 11.1637 73.6445 10.6067 75.2634 10.6067V10.5263C75.2634 9.95172 74.9585 9.66399 74.3562 9.66399C73.9253 9.66399 73.5472 9.77224 73.2145 9.98781L73.0171 9.35036C73.4212 9.09871 73.9253 8.97289 74.5174 8.97289C75.6591 8.97289 76.2355 9.57425 76.2355 10.7779V12.3849C76.2355 12.8253 76.2549 13.1667 76.2985 13.4267L75.4228 13.4258ZM75.2893 11.2525C74.2107 11.2525 73.6695 11.5134 73.6695 12.1324C73.6695 12.5903 73.9484 12.8142 74.3358 12.8142C74.8297 12.8142 75.2893 12.4377 75.2893 11.9261V11.2525ZM80.9513 13.4258L80.9059 12.7254H80.879C80.6001 13.2546 80.1312 13.5248 79.4761 13.5248C78.4224 13.5248 77.6422 12.5996 77.6422 11.2979C77.6422 9.93322 78.4512 8.97196 79.5558 8.97196C80.1405 8.97196 80.5547 9.16902 80.7882 9.565H80.8077V7.06055H81.7798V12.2499C81.7798 12.6717 81.79 13.0668 81.8159 13.4258H80.9513ZM80.8077 10.8584C80.8077 10.2478 80.4027 9.72691 79.7846 9.72691C79.0646 9.72691 78.6244 10.3644 78.6244 11.2618C78.6244 12.1416 79.0813 12.7439 79.7652 12.7439C80.3759 12.7439 80.8077 12.2138 80.8077 11.5856V10.8584ZM87.9431 13.5248C86.6671 13.5248 85.8395 12.5728 85.8395 11.2803C85.8395 9.93322 86.6847 8.97289 88.0154 8.97289C89.2747 8.97289 90.1198 9.87956 90.1198 11.209C90.1208 12.5727 89.2488 13.5248 87.9431 13.5248ZM87.9792 9.68157C87.2787 9.68157 86.8292 10.3366 86.8292 11.2525C86.8292 12.1509 87.2879 12.8059 87.97 12.8059C88.6538 12.8059 89.1116 12.1055 89.1116 11.234C89.1135 10.3458 88.664 9.68157 87.9792 9.68157ZM95.3426 13.4258H94.3705V10.9204C94.3705 10.1488 94.074 9.76206 93.4892 9.76206C92.9138 9.76206 92.519 10.2561 92.519 10.8306V13.4258H91.5469V10.3098C91.5469 9.92397 91.5377 9.51041 91.5108 9.0617H92.3652L92.4106 9.73523H92.4375C92.6979 9.26894 93.2288 8.97196 93.8219 8.97196C94.7393 8.97196 95.3426 9.67232 95.3426 10.8121V13.4258ZM101.877 9.78982H100.808V11.9085C100.808 12.4479 100.995 12.7171 101.373 12.7171C101.545 12.7171 101.688 12.6986 101.804 12.6717L101.831 13.4082C101.643 13.4803 101.391 13.5164 101.078 13.5164C100.312 13.5164 99.8546 13.0945 99.8546 11.9899V9.78982H99.217V9.06263H99.8546V8.26328L100.808 7.97555V9.0617H101.877V9.78982ZM107.018 13.4258H106.048V10.9389C106.048 10.158 105.752 9.76299 105.166 9.76299C104.663 9.76299 104.194 10.1044 104.194 10.7955V13.4258H103.224V7.06055H104.194V9.68157H104.214C104.519 9.20603 104.962 8.97196 105.528 8.97196C106.452 8.97196 107.018 9.6899 107.018 10.8306V13.4258ZM112.285 11.4773H109.371C109.389 12.3035 109.937 12.7698 110.748 12.7698C111.179 12.7698 111.575 12.6976 111.925 12.5635L112.076 13.237C111.663 13.4165 111.177 13.5063 110.61 13.5063C109.244 13.5063 108.435 12.644 108.435 11.3071C108.435 9.9693 109.263 8.96364 110.501 8.96364C111.618 8.96364 112.318 9.78982 112.318 11.0379C112.325 11.1852 112.313 11.3327 112.285 11.4773ZM111.394 10.7862C111.394 10.1127 111.054 9.63716 110.433 9.63716C109.876 9.63716 109.435 10.122 109.372 10.7862H111.394Z" fill="white"/>
<defs>
<linearGradient id="paint0_linear" x1="91.7027" y1="38.0932" x2="91.7027" y2="-95.3357" gradientUnits="userSpaceOnUse">
<stop stop-color="#1A1A1A" stop-opacity="0.1"/>
<stop offset="0.123" stop-color="#212121" stop-opacity="0.151"/>
<stop offset="0.308" stop-color="#353535" stop-opacity="0.227"/>
<stop offset="0.532" stop-color="#575757" stop-opacity="0.318"/>
<stop offset="0.783" stop-color="#858585" stop-opacity="0.421"/>
<stop offset="1" stop-color="#B3B3B3" stop-opacity="0.51"/>
</linearGradient>
</defs>
</svg>
