<svg width="130" height="38" viewBox="0 0 130 38" fill="none" xmlns="http://www.w3.org/2000/svg">
<path d="M125.185 37.9926H4.81481C2.11852 37.9926 0 35.9033 0 33.2442V4.7542C0 2.09513 2.11852 0.00585938 4.81481 0.00585938H125.185C127.881 0.00585938 130 2.09513 130 4.7542V33.2442C130 35.9033 127.881 37.9926 125.185 37.9926Z" fill="#171717"/>
<path d="M125.185 0.765593C127.4 0.765593 129.23 2.56996 129.23 4.7542V33.2442C129.23 35.4285 127.4 37.2328 125.185 37.2328H4.81482C2.6 37.2328 0.77037 35.4285 0.77037 33.2442V4.7542C0.77037 2.56996 2.6 0.765593 4.81482 0.765593H125.185ZM125.185 0.00585938H4.81482C2.11852 0.00585938 0 2.19009 0 4.7542V33.2442C0 35.9033 2.11852 37.9926 4.81482 37.9926H125.185C127.881 37.9926 130 35.9033 130 33.2442V4.7542C130 2.19009 127.881 0.00585938 125.185 0.00585938Z" fill="#2375EF"/>
<path d="M45.6445 9.6925C45.6445 10.4522 45.4519 11.117 44.9704 11.5918C44.3926 12.1616 43.7185 12.4465 42.8519 12.4465C41.9852 12.4465 41.3111 12.1616 40.7334 11.5918C40.1556 11.022 39.8667 10.3573 39.8667 9.50256C39.8667 8.64786 40.1556 7.9831 40.7334 7.41329C41.3111 6.84349 41.9852 6.55859 42.8519 6.55859C43.2371 6.55859 43.6223 6.65356 44.0074 6.84349C44.3926 7.03343 44.6815 7.22336 44.8741 7.50826L44.3926 7.98309C44.0074 7.50826 43.526 7.31833 42.8519 7.31833C42.2741 7.31833 41.6963 7.50826 41.3111 7.98309C40.8297 8.36296 40.6371 8.93276 40.6371 9.59753C40.6371 10.2623 40.8297 10.8321 41.3111 11.212C41.7926 11.5918 42.2741 11.8767 42.8519 11.8767C43.526 11.8767 44.0074 11.6868 44.4889 11.212C44.7778 10.9271 44.9704 10.5472 44.9704 10.0724H42.8519V9.31263H45.6445V9.6925ZM50.0741 7.31833H47.4741V9.1227H49.8815V9.78746H47.4741V11.5918H50.0741V12.3516H46.7037V6.65356H50.0741V7.31833ZM53.2519 12.3516H52.4815V7.31833H50.8445V6.65356H54.8889V7.31833H53.2519V12.3516ZM57.6815 12.3516V6.65356H58.4519V12.3516H57.6815ZM61.726 12.3516H60.9556V7.31833H59.3185V6.65356H63.2667V7.31833H61.6297V12.3516H61.726ZM70.8741 11.5918C70.2963 12.1616 69.6223 12.4465 68.7556 12.4465C67.8889 12.4465 67.2148 12.1616 66.6371 11.5918C66.0593 11.022 65.7704 10.3573 65.7704 9.50256C65.7704 8.64786 66.0593 7.9831 66.6371 7.41329C67.2148 6.84349 67.8889 6.55859 68.7556 6.55859C69.6223 6.55859 70.2963 6.84349 70.8741 7.41329C71.4519 7.9831 71.7408 8.64786 71.7408 9.50256C71.7408 10.3573 71.4519 11.022 70.8741 11.5918ZM67.2148 11.117C67.6 11.4969 68.1778 11.7818 68.7556 11.7818C69.3334 11.7818 69.9111 11.5918 70.2963 11.117C70.6815 10.7371 70.9704 10.1673 70.9704 9.50256C70.9704 8.8378 70.7778 8.268 70.2963 7.88813C69.9111 7.50826 69.3334 7.22336 68.7556 7.22336C68.1778 7.22336 67.6 7.41329 67.2148 7.88813C66.8297 8.268 66.5408 8.8378 66.5408 9.50256C66.5408 10.1673 66.7334 10.7371 67.2148 11.117ZM72.8 12.3516V6.65356H73.6667L76.4593 11.117V6.65356H77.2297V12.3516H76.4593L73.4741 7.69819V12.3516H72.8Z" fill="white"/>
<path d="M65.5776 20.7095C63.2665 20.7095 61.4369 22.4189 61.4369 24.7931C61.4369 27.0723 63.2665 28.8767 65.5776 28.8767C67.8887 28.8767 69.7184 27.1673 69.7184 24.7931C69.7184 22.324 67.8887 20.7095 65.5776 20.7095ZM65.5776 27.1673C64.3258 27.1673 63.2665 26.1226 63.2665 24.6981C63.2665 23.2736 64.3258 22.229 65.5776 22.229C66.8295 22.229 67.8887 23.1787 67.8887 24.6981C67.8887 26.1226 66.8295 27.1673 65.5776 27.1673ZM56.6221 20.7095C54.311 20.7095 52.4813 22.4189 52.4813 24.7931C52.4813 27.0723 54.311 28.8767 56.6221 28.8767C58.9332 28.8767 60.7628 27.1673 60.7628 24.7931C60.7628 22.324 58.9332 20.7095 56.6221 20.7095ZM56.6221 27.1673C55.3702 27.1673 54.311 26.1226 54.311 24.6981C54.311 23.2736 55.3702 22.229 56.6221 22.229C57.8739 22.229 58.9332 23.1787 58.9332 24.6981C58.9332 26.1226 57.8739 27.1673 56.6221 27.1673ZM45.9332 21.9441V23.6535H50.0739C49.9776 24.6032 49.5924 25.3629 49.111 25.8377C48.5332 26.4075 47.5702 27.0723 45.9332 27.0723C43.3332 27.0723 41.4073 25.078 41.4073 22.5139C41.4073 19.9498 43.4295 17.9555 45.9332 17.9555C47.2813 17.9555 48.3406 18.5253 49.111 19.1901L50.3628 17.9555C49.3036 17.0058 47.9554 16.2461 46.0295 16.2461C42.5628 16.2461 39.5776 19.0951 39.5776 22.5139C39.5776 25.9327 42.5628 28.7817 46.0295 28.7817C47.9554 28.7817 49.3036 28.2119 50.4591 26.9773C51.6147 25.8377 51.9999 24.2233 51.9999 22.9887C51.9999 22.6089 51.9999 22.229 51.9036 21.9441H45.9332ZM89.6517 23.2736C89.2665 22.324 88.3035 20.7095 86.185 20.7095C84.0665 20.7095 82.3332 22.324 82.3332 24.7931C82.3332 27.0723 84.0665 28.8767 86.3776 28.8767C88.2072 28.8767 89.3628 27.7371 89.748 27.0723L88.3998 26.1226C87.9184 26.7874 87.3406 27.2622 86.3776 27.2622C85.4146 27.2622 84.8369 26.8824 84.3554 26.0277L89.8443 23.7485L89.6517 23.2736ZM84.0665 24.6032C84.0665 23.0837 85.3184 22.229 86.185 22.229C86.8591 22.229 87.5332 22.6089 87.7258 23.0837L84.0665 24.6032ZM79.5406 28.4968H81.3702V16.626H79.5406V28.4968ZM76.6517 21.5642C76.1702 21.0894 75.3998 20.6146 74.4369 20.6146C72.4147 20.6146 70.4887 22.4189 70.4887 24.6981C70.4887 26.9773 72.3184 28.6867 74.4369 28.6867C75.3998 28.6867 76.1702 28.2119 76.5554 27.7371H76.6517V28.3069C76.6517 29.8263 75.785 30.681 74.4369 30.681C73.3776 30.681 72.6073 29.9213 72.4147 29.2565L70.8739 29.9213C71.3554 30.9659 72.511 32.2955 74.5332 32.2955C76.6517 32.2955 78.385 31.0609 78.385 28.1169V20.8995H76.6517V21.5642ZM74.5332 27.1673C73.2813 27.1673 72.2221 26.1226 72.2221 24.6981C72.2221 23.2736 73.2813 22.229 74.5332 22.229C75.785 22.229 76.748 23.2736 76.748 24.6981C76.748 26.1226 75.785 27.1673 74.5332 27.1673ZM98.0295 16.626H93.6961V28.4968H95.5258V24.0334H98.0295C100.052 24.0334 101.978 22.6089 101.978 20.3297C101.978 18.0505 100.052 16.626 98.0295 16.626ZM98.1258 22.324H95.5258V18.2404H98.1258C99.4739 18.2404 100.244 19.38 100.244 20.2347C100.148 21.2793 99.3776 22.324 98.1258 22.324ZM109.2 20.6146C107.852 20.6146 106.504 21.1844 106.022 22.4189L107.659 23.0837C108.044 22.4189 108.622 22.229 109.296 22.229C110.259 22.229 111.126 22.7988 111.222 23.7485V23.8434C110.933 23.6535 110.163 23.3686 109.392 23.3686C107.659 23.3686 105.926 24.3183 105.926 26.0277C105.926 27.6421 107.37 28.6867 108.911 28.6867C110.163 28.6867 110.741 28.1169 111.222 27.5471H111.318V28.4968H113.052V23.9384C112.859 21.8491 111.222 20.6146 109.2 20.6146ZM109.007 27.1673C108.429 27.1673 107.563 26.8824 107.563 26.1226C107.563 25.173 108.622 24.8881 109.489 24.8881C110.259 24.8881 110.644 25.078 111.126 25.2679C110.933 26.4075 109.97 27.1673 109.007 27.1673ZM119.118 20.8995L117.096 26.0277H117L114.881 20.8995H112.955L116.133 28.1169L114.304 32.1055H116.133L121.044 20.8995H119.118ZM102.941 28.4968H104.77V16.626H102.941V28.4968Z" fill="white"/>
<path d="M10.0148 7.12891C9.72593 7.41381 9.62964 7.88864 9.62964 8.45844V29.4461C9.62964 30.0159 9.82223 30.4907 10.1111 30.7756L10.2074 30.8706L22.1482 19.0947V18.9048L10.0148 7.12891Z" fill="url(#paint0_linear)"/>
<path d="M25.9999 23.0819L22.0518 19.1883V18.9034L25.9999 15.0098L26.0962 15.1047L30.8147 17.7638C32.1629 18.5235 32.1629 19.7581 30.8147 20.5178L25.9999 23.0819Z" fill="url(#paint1_linear)"/>
<path d="M26.0964 22.9867L22.0519 18.998L10.0149 30.8689C10.4964 31.3437 11.1704 31.3437 12.0371 30.9639L26.0964 22.9867Z" fill="url(#paint2_linear)"/>
<path d="M26.0964 15.0108L12.0371 7.12859C11.1704 6.65375 10.4964 6.74872 10.0149 7.22355L22.0519 18.9994L26.0964 15.0108Z" fill="url(#paint3_linear)"/>
<path opacity="0.2" d="M26.0001 22.8926L12.0371 30.6799C11.2667 31.1547 10.5927 31.0597 10.1112 30.6799L10.0149 30.7748L10.1112 30.8698C10.5927 31.2497 11.2667 31.3446 12.0371 30.8698L26.0001 22.8926Z" fill="#2375EF"/>
<path opacity="0.2" d="M10.0148 30.679C9.72593 30.3941 9.62964 29.9192 9.62964 29.3494V29.4444C9.62964 30.0142 9.82223 30.489 10.1111 30.7739V30.679H10.0148ZM30.8148 20.2326L26 22.8917L26.0963 22.9867L30.8148 20.3276C31.4889 19.9477 31.7778 19.4729 31.7778 18.998C31.7778 19.4729 31.3926 19.8527 30.8148 20.2326Z" fill="#2375EF"/>
<path opacity="0.2" d="M12.037 7.22299L30.8148 17.7643C31.3926 18.1442 31.7778 18.524 31.7778 18.9989C31.7778 18.524 31.4889 18.0492 30.8148 17.6693L12.037 7.12802C10.6889 6.36829 9.62964 6.93809 9.62964 8.45756V8.55252C9.62964 7.12802 10.6889 6.46325 12.037 7.22299Z" fill="white"/>
<defs>
<linearGradient id="paint0_linear" x1="20.9926" y1="8.278" x2="5.05585" y2="24.4369" gradientUnits="userSpaceOnUse">
<stop stop-color="#00A0FF"/>
<stop offset="0.007" stop-color="#00A1FF"/>
<stop offset="0.26" stop-color="#00BEFF"/>
<stop offset="0.512" stop-color="#00D2FF"/>
<stop offset="0.76" stop-color="#00DFFF"/>
<stop offset="1" stop-color="#00E3FF"/>
</linearGradient>
<linearGradient id="paint1_linear" x1="32.5808" y1="18.9993" x2="9.27997" y2="18.9993" gradientUnits="userSpaceOnUse">
<stop stop-color="#FFE000"/>
<stop offset="0.409" stop-color="#FFBD00"/>
<stop offset="0.775" stop-color="#FFA500"/>
<stop offset="1" stop-color="#FF9C00"/>
</linearGradient>
<linearGradient id="paint2_linear" x1="23.9076" y1="21.1785" x2="2.29711" y2="43.0915" gradientUnits="userSpaceOnUse">
<stop stop-color="#FF3A44"/>
<stop offset="1" stop-color="#C31162"/>
</linearGradient>
<linearGradient id="paint3_linear" x1="7.02682" y1="0.173221" x2="16.6774" y2="9.95887" gradientUnits="userSpaceOnUse">
<stop stop-color="#32A071"/>
<stop offset="0.069" stop-color="#2DA771"/>
<stop offset="0.476" stop-color="#15CF74"/>
<stop offset="0.801" stop-color="#06E775"/>
<stop offset="1" stop-color="#00F076"/>
</linearGradient>
</defs>
</svg>
