<svg width="15" height="15" viewBox="0 0 15 15" fill="none" xmlns="http://www.w3.org/2000/svg">
<path d="M14.9047 7.20819C14.7707 7.02488 11.5778 2.71973 7.49993 2.71973C3.42206 2.71973 0.229043 7.02488 0.0951857 7.20802C-0.0317286 7.38192 -0.0317286 7.61779 0.0951857 7.7917C0.229043 7.97501 3.42206 12.2802 7.49993 12.2802C11.5778 12.2802 14.7707 7.97498 14.9047 7.79185C15.0318 7.61797 15.0318 7.38192 14.9047 7.20819ZM7.49993 11.2912C4.49614 11.2912 1.89454 8.43374 1.12442 7.49961C1.89355 6.56466 4.4897 3.70873 7.49993 3.70873C10.5036 3.70873 13.105 6.56565 13.8754 7.50028C13.1063 8.43521 10.5102 11.2912 7.49993 11.2912Z" fill="#3D3D3D"/>
<path d="M7.49994 4.53296C5.86394 4.53296 4.5329 5.86401 4.5329 7.50001C4.5329 9.13601 5.86394 10.4671 7.49994 10.4671C9.13594 10.4671 10.467 9.13601 10.467 7.50001C10.467 5.86401 9.13594 4.53296 7.49994 4.53296ZM7.49994 9.47802C6.40922 9.47802 5.52193 8.5907 5.52193 7.50001C5.52193 6.40931 6.40925 5.52199 7.49994 5.52199C8.59064 5.52199 9.47795 6.40931 9.47795 7.50001C9.47795 8.5907 8.59067 9.47802 7.49994 9.47802Z" fill="#3D3D3D"/>
</svg>
